<svg xmlns="http://www.w3.org/2000/svg" viewBox="0 0 23 22">
    <path d="M12.318 14.137l-.526 1.093-6.326 6.326-4.093-4.092L7.7 11.137l1.093-.526-1.651-1.65a4.574 4.574 0 0 1-1.693.324A4.617 4.617 0 0 1 .833 4.667a.457.457 0 0 1 .644-.431.676.676 0 0 1 .1.05c.054.033.097.067.142.104.088.074.18.163.283.268.203.208.442.474.673.74.32.37.624.735.781.926l2.28.282 1.646-1.652-.276-2.28c-.243-.2-.773-.64-1.229-1.048-.205-.184-.395-.36-.543-.512a2.59 2.59 0 0 1-.218-.25c-.033-.046-.065-.09-.098-.17A.51.51 0 0 1 4.982.51a.46.46 0 0 1 .224-.394.459.459 0 0 1 .233-.064L5.45.05h.001a4.617 4.617 0 0 1 4.616 4.616 4.59 4.59 0 0 1-.324 1.692l2.072 2.072.617-.618.76.76 7.02-7.02L22.29.094l.542.543-1.456 2.08-7.02 7.02.759.76-.618.617 7.84 7.84-2.6 2.601-7.42-7.42z"/>
</svg>
