<svg xmlns="http://www.w3.org/2000/svg" viewBox="0 0 19 26">
    <path d="M11.181 18.895c.43.011.777.357.788.788v4.724a.808.808 0 0 1-.788.787H6.457a.807.807 0 0 1-.787-.787v-4.724a.808.808 0 0 1 .787-.788h4.724zm6.201-14.141c.529.954.807 2.027.808 3.118a6.647 6.647 0 0 1-.994 3.494c-.305.44-.67.835-1.086 1.172a9.97 9.97 0 0 1-1.132.856c-.289.178-.689.411-1.2.7-.547.31-1.01.75-1.349 1.28a2.681 2.681 0 0 0-.541 1.319 1.03 1.03 0 0 1-.236.639.685.685 0 0 1-.551.306H6.377a.591.591 0 0 1-.5-.364 1.478 1.478 0 0 1-.207-.738v-.886a4.585 4.585 0 0 1 1.279-3.08 8.312 8.312 0 0 1 2.814-2.136 4.854 4.854 0 0 0 1.654-1.1 2.21 2.21 0 0 0 .492-1.5 1.779 1.779 0 0 0-.915-1.457 3.644 3.644 0 0 0-2.116-.63 3.721 3.721 0 0 0-2.126.571 13.425 13.425 0 0 0-2.106 2.264.765.765 0 0 1-.61.315.943.943 0 0 1-.492-.157L.316 6.279a.777.777 0 0 1-.197-1.043A10.053 10.053 0 0 1 9.252 0a8.822 8.822 0 0 1 3.169.61 10.67 10.67 0 0 1 2.875 1.634 8.16 8.16 0 0 1 2.086 2.51z"/>
</svg>
