<svg xmlns="http://www.w3.org/2000/svg" viewBox="0 0 16 16">
    <path d="M9.434 8.016l6.3-6.3A1.003 1.003 0 1 0 14.32.294l-6.3 6.3-6.3-6.3A1.005 1.005 0 1 0 .294 1.711l6.3 6.3-6.3 6.3a1.002 1.002 0 1 0 1.418 1.417l6.3-6.3 6.3 6.3a1.003 1.003 0 1 0 1.418-1.418L9.434 8.016z"/>
</svg>
