<svg xmlns="http://www.w3.org/2000/svg" viewBox="0 0 18 15">
    <path d="M17.406.725v1.45a.685.685 0 0 1-.725.725H.725A.685.685 0 0 1 0 2.175V.725A.685.685 0 0 1 .725 0h15.956a.685.685 0 0 1 .725.725zm0 5.802v1.45a.685.685 0 0 1-.725.725H.725A.685.685 0 0 1 0 7.977v-1.45a.685.685 0 0 1 .725-.725h15.956a.685.685 0 0 1 .725.725zm0 5.802v1.45a.685.685 0 0 1-.725.725H.725A.685.685 0 0 1 0 13.779v-1.45a.685.685 0 0 1 .725-.725h15.956a.685.685 0 0 1 .725.725z"/>
</svg>
