<svg xmlns="http://www.w3.org/2000/svg" viewBox="0 0 11 7">
    <path d="M10.6.2a.649.649 0 0 0-.475-.2H.675A.649.649 0 0 0 .2.2a.663.663 0 0 0 0 .95l4.726 4.726a.662.662 0 0 0 .949 0L10.6 1.147a.662.662 0 0 0 0-.95V.2z"/>
</svg>
