<svg xmlns="http://www.w3.org/2000/svg" viewBox="0 0 144 26">
    <g fill="none">
        <path fill="#0EB08D" d="M0 0h13.641v4.657H4.723v4.522h8.918v4.573H4.723v6.578h8.918v4.676H0V0zm39.036 6.119h4.839v9.566a10.6 10.6 0 0 0 .369 3.395 3 3 0 0 0 1.186 1.477c.605.368 1.304.55 2.012.527a3.771 3.771 0 0 0 2.03-.519 3.088 3.088 0 0 0 1.239-1.526c.262-1.049.363-2.131.3-3.21v-9.71h4.786v8.561c0 3.035-.263 5.11-.788 6.228a6.994 6.994 0 0 1-2.84 3.14 9.375 9.375 0 0 1-4.769 1.093 9.06 9.06 0 0 1-5.074-1.279 6.785 6.785 0 0 1-2.726-3.56 19.75 19.75 0 0 1-.564-5.75V6.119zM119.475.096a1.885 1.885 0 0 1 1.387.578c.375.366.583.87.575 1.394a1.889 1.889 0 0 1-.575 1.377 1.888 1.888 0 0 1-1.387.578 1.87 1.87 0 0 1-1.371-.578 1.889 1.889 0 0 1-.575-1.377c-.008-.524.2-1.028.575-1.394a1.867 1.867 0 0 1 1.371-.578zM35.611 25.044h-4.638v-2.431a9.173 9.173 0 0 1-2.723 1.862 7.667 7.667 0 0 1-2.961.569 8.259 8.259 0 0 1-6.194-2.779 9.744 9.744 0 0 1-2.613-6.91 9.988 9.988 0 0 1 2.528-7.021A8.086 8.086 0 0 1 25.153 5.6a7.823 7.823 0 0 1 3.122.629 8.55 8.55 0 0 1 2.7 1.887L30.853 0h4.638l.12 25.043v.001zM25.006 9.88a4.706 4.706 0 0 0-3.573 1.52 5.508 5.508 0 0 0-1.422 3.9 5.568 5.568 0 0 0 1.447 3.944 4.706 4.706 0 0 0 3.564 1.556 4.8 4.8 0 0 0 3.623-1.522 5.592 5.592 0 0 0 1.437-3.992 5.434 5.434 0 0 0-1.439-3.91 4.856 4.856 0 0 0-3.637-1.496z"/>
        <path fill="#434B5D" d="M60.049 25.141V.096h2.378v25.045h-2.378zm40.515-16.917l-1.5 1.549a4.21 4.21 0 0 0-3.668-1.5 2.855 2.855 0 0 0-1.944.749 2.317 2.317 0 0 0-.808 1.748c.013.623.25 1.221.668 1.684a9.344 9.344 0 0 0 2.8 1.915 10.48 10.48 0 0 1 3.534 2.6c.605.825.926 1.824.916 2.847a5.111 5.111 0 0 1-1.564 3.778 5.346 5.346 0 0 1-3.916 1.549 6.837 6.837 0 0 1-2.991-.683 6.485 6.485 0 0 1-2.357-1.883l1.463-1.665a5.09 5.09 0 0 0 3.786 2.014 3.405 3.405 0 0 0 2.385-.9 2.775 2.775 0 0 0 .985-2.114 2.709 2.709 0 0 0-.651-1.782 10.444 10.444 0 0 0-2.935-1.931 9.416 9.416 0 0 1-3.333-2.496 4.707 4.707 0 0 1-.885-2.814 4.576 4.576 0 0 1 1.407-3.43 4.906 4.906 0 0 1 3.56-1.365 6 6 0 0 1 5.048 2.13zm6.269-8.128h2.378v7.28h3.5v2.241h-3.5v15.524h-2.378V9.617h-2.007V7.376h2.007V.096zM144 10.278l-1.852 1.152a7.758 7.758 0 0 0-6.552-3.193 7.575 7.575 0 0 0-5.508 2.14 6.97 6.97 0 0 0-2.192 5.187 7.37 7.37 0 0 0 1.009 3.737 7.072 7.072 0 0 0 2.766 2.719 8.05 8.05 0 0 0 3.944.967 7.971 7.971 0 0 0 6.534-3.189l1.852 1.219a8.754 8.754 0 0 1-3.5 3.043 11.159 11.159 0 0 1-5 1.082 9.86 9.86 0 0 1-7.14-2.739 8.907 8.907 0 0 1-2.835-6.666 9.512 9.512 0 0 1 1.328-4.9 9.353 9.353 0 0 1 3.645-3.531 10.636 10.636 0 0 1 5.19-1.269 11.047 11.047 0 0 1 3.48.551 9.666 9.666 0 0 1 2.846 1.436A7.813 7.813 0 0 1 144 10.278zM85.311 25.141h-2.3v-3.58a10.027 10.027 0 0 1-3.286 2.681 8.92 8.92 0 0 1-3.983.9 8.872 8.872 0 0 1-6.564-2.788 9.393 9.393 0 0 1-2.718-6.787 9.22 9.22 0 0 1 2.746-6.693 8.978 8.978 0 0 1 6.605-2.78 8.594 8.594 0 0 1 4.035.948 9.238 9.238 0 0 1 3.168 2.852V6.559h2.3v18.58l-.003.002zm-9.31-16.8a7.027 7.027 0 0 0-6.207 3.642 7.348 7.348 0 0 0 .008 7.319 7.175 7.175 0 0 0 2.634 2.718 6.9 6.9 0 0 0 3.548.974 7.3 7.3 0 0 0 3.622-.965 6.761 6.761 0 0 0 2.633-2.611 7.472 7.472 0 0 0 .921-3.709 7.243 7.243 0 0 0-2.064-5.255 6.882 6.882 0 0 0-5.095-2.114v.001zm42.293 16.915V6.119h2.379v19.137h-2.379z"/>
    </g>
</svg>
